<?xml version="1.0" encoding="UTF-8" standalone="no"?>
<!-- Created with Inkscape (http://www.inkscape.org/) -->

<svg
   xmlns:dc="http://purl.org/dc/elements/1.1/"
   xmlns:cc="http://creativecommons.org/ns#"
   xmlns:rdf="http://www.w3.org/1999/02/22-rdf-syntax-ns#"
   xmlns:svg="http://www.w3.org/2000/svg"
   xmlns="http://www.w3.org/2000/svg"
   xmlns:sodipodi="http://sodipodi.sourceforge.net/DTD/sodipodi-0.dtd"
   xmlns:inkscape="http://www.inkscape.org/namespaces/inkscape"
   width="32"
   height="32"
   id="svg4420"
   version="1.1"
   inkscape:version="0.48.4 r9939"
   sodipodi:docname="astroweather-humidity-4.svg">
  <defs
     id="defs4422" />
  <sodipodi:namedview
     id="base"
     pagecolor="#555753"
     bordercolor="#555753"
     borderopacity="1"
     inkscape:pageopacity="1"
     inkscape:pageshadow="2"
     inkscape:zoom="11.098901"
     inkscape:cx="16.589986"
     inkscape:cy="11.25723"
     inkscape:current-layer="layer1"
     showgrid="true"
     inkscape:grid-bbox="true"
     inkscape:document-units="px"
     showborder="true"
     inkscape:snap-global="true"
     inkscape:snap-bbox="true"
     inkscape:window-width="1366"
     inkscape:window-height="702"
     inkscape:window-x="0"
     inkscape:window-y="27"
     inkscape:window-maximized="1"
     fit-margin-top="1"
     fit-margin-left="1"
     fit-margin-right="1"
     fit-margin-bottom="1">
    <inkscape:grid
       type="xygrid"
       id="grid5514"
       empspacing="5"
       visible="true"
       enabled="true"
       snapvisiblegridlinesonly="true"
       originx="16.000001px"
       originy="16px"
       spacingx="1px"
       spacingy="1px" />
  </sodipodi:namedview>
  <metadata
     id="metadata4425">
    <rdf:RDF>
      <cc:Work
         rdf:about="">
        <dc:format>image/svg+xml</dc:format>
        <dc:type
           rdf:resource="http://purl.org/dc/dcmitype/StillImage" />
        <dc:title></dc:title>
      </cc:Work>
    </rdf:RDF>
  </metadata>
  <g
     id="layer1"
     inkscape:label="Layer 1"
     inkscape:groupmode="layer"
     transform="translate(16.000001,4.1387285e-8)">
    <path
       style="fill:#bebebe;fill-opacity:1;stroke:#bebebe;stroke-width:0.10488272;stroke-miterlimit:4;stroke-opacity:1;stroke-dasharray:none"
       d="m -12.035967,3.024774 c -0.517709,0 -0.935739,0.417508 -0.935739,0.93574 0,0.518232 0.41803,0.93574 0.935739,0.93574 0.51771,0 0.93574,-0.417508 0.93574,-0.93574 0,-0.518232 -0.41803,-0.93574 -0.93574,-0.93574 z"
       id="path4428"
       inkscape:connector-curvature="0" />
    <path
       style="fill:#bebebe;fill-opacity:1;stroke:#bebebe;stroke-width:0.10613715;stroke-miterlimit:4;stroke-opacity:1;stroke-dasharray:none"
       d="m -3.9905694,3.0247741 c -0.5239015,0 -0.9469315,0.4225013 -0.9469315,0.9469315 0,0.52443 0.42303,0.9469314 0.9469315,0.9469314 0.5239015,0 0.9469314,-0.4225014 0.9469314,-0.9469314 0,-0.5244302 -0.4230299,-0.9469315 -0.9469314,-0.9469315 z"
       id="path4428-2"
       inkscape:connector-curvature="0" />
    <path
       style="fill:#bebebe;fill-opacity:1;stroke:#bebebe;stroke-width:0.10613713;stroke-miterlimit:4;stroke-opacity:1;stroke-dasharray:none"
       d="m 4.028293,3.0247741 c -0.523902,0 -0.946931,0.4225013 -0.946931,0.9469315 0,0.52443 0.423029,0.9469314 0.946931,0.9469314 0.523902,0 0.946931,-0.4225014 0.946931,-0.9469314 0,-0.5244302 -0.423029,-0.9469315 -0.946931,-0.9469315 z"
       id="path4428-8-4"
       inkscape:connector-curvature="0" />
    <path
       style="fill:#bebebe;fill-opacity:1;stroke:#bebebe;stroke-width:0.10488272;stroke-miterlimit:4;stroke-opacity:1;stroke-dasharray:none"
       d="m -6.982899,7.043637 c -0.517709,0 -0.935739,0.417508 -0.935739,0.93574 0,0.518232 0.41803,0.93574 0.935739,0.93574 0.51771,0 0.93574,-0.417508 0.93574,-0.93574 0,-0.518232 -0.41803,-0.93574 -0.93574,-0.93574 z"
       id="path4428-25"
       inkscape:connector-curvature="0" />
    <path
       style="fill:#bebebe;fill-opacity:1;stroke:#bebebe;stroke-width:0.10613715;stroke-miterlimit:4;stroke-opacity:1;stroke-dasharray:none"
       d="m 0.028293,3.0247741 c -0.523901,0 -0.946931,0.4225013 -0.946931,0.9469315 0,0.52443 0.42303,0.9469314 0.946931,0.9469314 0.523902,0 0.946931,-0.4225014 0.946931,-0.9469314 0,-0.5244302 -0.423029,-0.9469315 -0.946931,-0.9469315 z"
       id="path4428-2-9"
       inkscape:connector-curvature="0" />
    <path
       style="fill:#bebebe;fill-opacity:1;stroke:#bebebe;stroke-width:0.10613713;stroke-miterlimit:4;stroke-opacity:1;stroke-dasharray:none"
       d="m 9.084881,7.0059111 c -0.523902,0 -0.946932,0.422501 -0.946932,0.946932 0,0.52443 0.42303,0.946931 0.946932,0.946931 0.523902,0 0.946931,-0.422501 0.946931,-0.946931 0,-0.524431 -0.423029,-0.946932 -0.946931,-0.946932 z"
       id="path4428-8-4-4"
       inkscape:connector-curvature="0" />
    <path
       style="fill:#bebebe;fill-opacity:1;stroke:#bebebe;stroke-width:0.10613715;stroke-miterlimit:4;stroke-opacity:1;stroke-dasharray:none"
       d="m 1.009431,7.024774 c -0.523901,0 -0.946931,0.422501 -0.946931,0.946931 0,0.52443 0.42303,0.946932 0.946931,0.946932 0.523902,0 0.946931,-0.422502 0.946931,-0.946932 0,-0.52443 -0.423029,-0.946931 -0.946931,-0.946931 z"
       id="path4428-2-2"
       inkscape:connector-curvature="0" />
    <path
       style="fill:#bebebe;fill-opacity:1;stroke:#bebebe;stroke-width:0.10613713;stroke-miterlimit:4;stroke-opacity:1;stroke-dasharray:none"
       d="m 13.028294,7.024774 c -0.523902,0 -0.946932,0.422501 -0.946932,0.946931 0,0.52443 0.42303,0.946932 0.946932,0.946932 0.523902,0 0.946931,-0.422502 0.946931,-0.946932 0,-0.52443 -0.423029,-0.946931 -0.946931,-0.946931 z"
       id="path4428-8-4-25"
       inkscape:connector-curvature="0" />
    <path
       style="fill:#bebebe;fill-opacity:1;stroke:#bebebe;stroke-width:0.10613715;stroke-miterlimit:4;stroke-opacity:1;stroke-dasharray:none"
       d="m -7.971707,3.0247741 c -0.523901,0 -0.946931,0.4225013 -0.946931,0.9469315 0,0.52443 0.42303,0.9469314 0.946931,0.9469314 0.523902,0 0.946932,-0.4225014 0.946932,-0.9469314 0,-0.5244302 -0.42303,-0.9469315 -0.946932,-0.9469315 z"
       id="path4428-2-0"
       inkscape:connector-curvature="0" />
    <path
       style="fill:#bebebe;fill-opacity:1;stroke:#bebebe;stroke-width:0.10613715;stroke-miterlimit:4;stroke-opacity:1;stroke-dasharray:none"
       d="m -2.971707,7.024774 c -0.523901,0 -0.946931,0.422501 -0.946931,0.946931 0,0.52443 0.42303,0.946932 0.946931,0.946932 0.523902,0 0.946932,-0.422502 0.946932,-0.946932 0,-0.52443 -0.42303,-0.946931 -0.946932,-0.946931 z"
       id="path4428-2-6"
       inkscape:connector-curvature="0" />
    <path
       style="fill:#bebebe;fill-opacity:1;stroke:#bebebe;stroke-width:0.10613713;stroke-miterlimit:4;stroke-opacity:1;stroke-dasharray:none"
       d="m 8.028293,3.0247741 c -0.523902,0 -0.946931,0.4225013 -0.946931,0.9469315 0,0.52443 0.423029,0.9469314 0.946931,0.9469314 0.523902,0 0.946931,-0.4225014 0.946931,-0.9469314 0,-0.5244302 -0.423029,-0.9469315 -0.946931,-0.9469315 z"
       id="path4428-8-4-3"
       inkscape:connector-curvature="0" />
    <path
       style="fill:#bebebe;fill-opacity:1;stroke:#bebebe;stroke-width:0.10613713;stroke-miterlimit:4;stroke-opacity:1;stroke-dasharray:none"
       d="m -10.896257,7.0059112 c -0.523902,0 -0.946931,0.4225013 -0.946931,0.9469315 0,0.52443 0.423029,0.9469314 0.946931,0.9469314 0.523902,0 0.946931,-0.4225014 0.946931,-0.9469314 0,-0.5244302 -0.423029,-0.9469315 -0.946931,-0.9469315 z"
       id="path4428-8-4-9"
       inkscape:connector-curvature="0" />
    <path
       style="fill:#bebebe;fill-opacity:1;stroke:#bebebe;stroke-width:0.10613713;stroke-miterlimit:4;stroke-opacity:1;stroke-dasharray:none"
       d="m 12.009431,3.043637 c -0.523902,0 -0.946932,0.422501 -0.946932,0.946931 0,0.52443 0.42303,0.946932 0.946932,0.946932 0.523902,0 0.946931,-0.422502 0.946931,-0.946932 0,-0.52443 -0.423029,-0.946931 -0.946931,-0.946931 z"
       id="path4428-8-4-25-9"
       inkscape:connector-curvature="0" />
    <path
       style="fill:#bebebe;fill-opacity:1;stroke:#bebebe;stroke-width:0.10613715;stroke-miterlimit:4;stroke-opacity:1;stroke-dasharray:none"
       d="m 5.028293,7.043637 c -0.523901,0 -0.946931,0.422501 -0.946931,0.946931 0,0.52443 0.42303,0.946932 0.946931,0.946932 0.523902,0 0.946931,-0.422502 0.946931,-0.946932 0,-0.52443 -0.423029,-0.946931 -0.946931,-0.946931 z"
       id="path4428-2-2-36"
       inkscape:connector-curvature="0" />
    <path
       style="fill:#bebebe;fill-opacity:1;stroke:#bebebe;stroke-width:0.10488272;stroke-miterlimit:4;stroke-opacity:1;stroke-dasharray:none"
       d="m -12.054829,11.043637 c -0.517709,0 -0.935739,0.417508 -0.935739,0.93574 0,0.518232 0.41803,0.93574 0.935739,0.93574 0.51771,0 0.93574,-0.417508 0.93574,-0.93574 0,-0.518232 -0.41803,-0.93574 -0.93574,-0.93574 z"
       id="path4428-3"
       inkscape:connector-curvature="0" />
    <path
       style="fill:#bebebe;fill-opacity:1;stroke:#bebebe;stroke-width:0.10613715;stroke-miterlimit:4;stroke-opacity:1;stroke-dasharray:none"
       d="m -4.009431,11.043637 c -0.523902,0 -0.946932,0.422501 -0.946932,0.946932 0,0.52443 0.42303,0.946931 0.946932,0.946931 0.523901,0 0.946931,-0.422501 0.946931,-0.946931 0,-0.524431 -0.42303,-0.946932 -0.946931,-0.946932 z"
       id="path4428-2-7"
       inkscape:connector-curvature="0" />
    <path
       style="fill:#bebebe;fill-opacity:1;stroke:#bebebe;stroke-width:0.10613713;stroke-miterlimit:4;stroke-opacity:1;stroke-dasharray:none"
       d="m 4.009431,11.043637 c -0.523902,0 -0.946931,0.422501 -0.946931,0.946932 0,0.52443 0.423029,0.946931 0.946931,0.946931 0.523902,0 0.946931,-0.422501 0.946931,-0.946931 0,-0.524431 -0.423029,-0.946932 -0.946931,-0.946932 z"
       id="path4428-8-4-2"
       inkscape:connector-curvature="0" />
    <path
       style="fill:#bebebe;fill-opacity:1;stroke:#bebebe;stroke-width:0.10488272;stroke-miterlimit:4;stroke-opacity:1;stroke-dasharray:none"
       d="m -7.001761,15.0625 c -0.517709,0 -0.935739,0.417508 -0.935739,0.93574 0,0.518232 0.41803,0.93574 0.935739,0.93574 0.51771,0 0.93574,-0.417508 0.93574,-0.93574 0,-0.518232 -0.41803,-0.93574 -0.93574,-0.93574 z"
       id="path4428-25-9"
       inkscape:connector-curvature="0" />
    <path
       style="fill:#bebebe;fill-opacity:1;stroke:#bebebe;stroke-width:0.10613715;stroke-miterlimit:4;stroke-opacity:1;stroke-dasharray:none"
       d="m 0.009431,11.043637 c -0.523901,0 -0.946931,0.422501 -0.946931,0.946932 0,0.52443 0.42303,0.946931 0.946931,0.946931 0.523902,0 0.946931,-0.422501 0.946931,-0.946931 0,-0.524431 -0.423029,-0.946932 -0.946931,-0.946932 z"
       id="path4428-2-9-6"
       inkscape:connector-curvature="0" />
    <path
       style="fill:#bebebe;fill-opacity:1;stroke:#bebebe;stroke-width:0.10613713;stroke-miterlimit:4;stroke-opacity:1;stroke-dasharray:none"
       d="m 9.066019,15.024774 c -0.523902,0 -0.946932,0.422501 -0.946932,0.946932 0,0.52443 0.42303,0.946931 0.946932,0.946931 0.523902,0 0.946931,-0.422501 0.946931,-0.946931 0,-0.524431 -0.423029,-0.946932 -0.946931,-0.946932 z"
       id="path4428-8-4-4-9"
       inkscape:connector-curvature="0" />
    <path
       style="fill:#bebebe;fill-opacity:1;stroke:#bebebe;stroke-width:0.10613715;stroke-miterlimit:4;stroke-opacity:1;stroke-dasharray:none"
       d="m 0.990569,15.043637 c -0.523901,0 -0.946931,0.422501 -0.946931,0.946931 0,0.52443 0.42303,0.946932 0.946931,0.946932 0.523902,0 0.946931,-0.422502 0.946931,-0.946932 0,-0.52443 -0.423029,-0.946931 -0.946931,-0.946931 z"
       id="path4428-2-2-3"
       inkscape:connector-curvature="0" />
    <path
       style="fill:#bebebe;fill-opacity:1;stroke:#bebebe;stroke-width:0.10613713;stroke-miterlimit:4;stroke-opacity:1;stroke-dasharray:none"
       d="m 13.009432,15.043637 c -0.523902,0 -0.946932,0.422501 -0.946932,0.946931 0,0.52443 0.42303,0.946932 0.946932,0.946932 0.523902,0 0.946931,-0.422502 0.946931,-0.946932 0,-0.52443 -0.423029,-0.946931 -0.946931,-0.946931 z"
       id="path4428-8-4-25-1"
       inkscape:connector-curvature="0" />
    <path
       style="fill:#bebebe;fill-opacity:1;stroke:#bebebe;stroke-width:0.10613715;stroke-miterlimit:4;stroke-opacity:1;stroke-dasharray:none"
       d="m -7.990569,11.043637 c -0.523901,0 -0.946931,0.422501 -0.946931,0.946932 0,0.52443 0.42303,0.946931 0.946931,0.946931 0.523902,0 0.946932,-0.422501 0.946932,-0.946931 0,-0.524431 -0.42303,-0.946932 -0.946932,-0.946932 z"
       id="path4428-2-0-6"
       inkscape:connector-curvature="0" />
    <path
       style="fill:#bebebe;fill-opacity:1;stroke:#bebebe;stroke-width:0.10613715;stroke-miterlimit:4;stroke-opacity:1;stroke-dasharray:none"
       d="m -2.990569,15.043637 c -0.523901,0 -0.946931,0.422501 -0.946931,0.946931 0,0.52443 0.42303,0.946932 0.946931,0.946932 0.523902,0 0.946932,-0.422502 0.946932,-0.946932 0,-0.52443 -0.42303,-0.946931 -0.946932,-0.946931 z"
       id="path4428-2-6-4"
       inkscape:connector-curvature="0" />
    <path
       style="fill:#bebebe;fill-opacity:1;stroke:#bebebe;stroke-width:0.10613713;stroke-miterlimit:4;stroke-opacity:1;stroke-dasharray:none"
       d="m 8.009431,11.043637 c -0.523902,0 -0.946931,0.422501 -0.946931,0.946932 0,0.52443 0.423029,0.946931 0.946931,0.946931 0.523902,0 0.946931,-0.422501 0.946931,-0.946931 0,-0.524431 -0.423029,-0.946932 -0.946931,-0.946932 z"
       id="path4428-8-4-3-3"
       inkscape:connector-curvature="0" />
    <path
       style="fill:#bebebe;fill-opacity:1;stroke:#bebebe;stroke-width:0.10613713;stroke-miterlimit:4;stroke-opacity:1;stroke-dasharray:none"
       d="m -10.915119,15.024774 c -0.523902,0 -0.946931,0.422501 -0.946931,0.946932 0,0.52443 0.423029,0.946931 0.946931,0.946931 0.523902,0 0.946931,-0.422501 0.946931,-0.946931 0,-0.524431 -0.423029,-0.946932 -0.946931,-0.946932 z"
       id="path4428-8-4-9-5"
       inkscape:connector-curvature="0" />
    <path
       style="fill:#bebebe;fill-opacity:1;stroke:#bebebe;stroke-width:0.10613713;stroke-miterlimit:4;stroke-opacity:1;stroke-dasharray:none"
       d="m 11.990569,11.0625 c -0.523902,0 -0.946932,0.422501 -0.946932,0.946931 0,0.52443 0.42303,0.946932 0.946932,0.946932 0.523902,0 0.946931,-0.422502 0.946931,-0.946932 0,-0.52443 -0.423029,-0.946931 -0.946931,-0.946931 z"
       id="path4428-8-4-25-9-3"
       inkscape:connector-curvature="0" />
    <path
       style="fill:#bebebe;fill-opacity:1;stroke:#bebebe;stroke-width:0.10613715;stroke-miterlimit:4;stroke-opacity:1;stroke-dasharray:none"
       d="m 5.009431,15.0625 c -0.523901,0 -0.946931,0.422501 -0.946931,0.946931 0,0.52443 0.42303,0.946932 0.946931,0.946932 0.523902,0 0.946931,-0.422502 0.946931,-0.946932 0,-0.52443 -0.423029,-0.946931 -0.946931,-0.946931 z"
       id="path4428-2-2-36-0"
       inkscape:connector-curvature="0" />
    <path
       style="fill:#bebebe;fill-opacity:1;stroke:#bebebe;stroke-width:0.10488272;stroke-miterlimit:4;stroke-opacity:1;stroke-dasharray:none"
       d="m -12.054829,19.043637 c -0.517709,0 -0.935739,0.417508 -0.935739,0.93574 0,0.518232 0.41803,0.93574 0.935739,0.93574 0.51771,0 0.93574,-0.417508 0.93574,-0.93574 0,-0.518232 -0.41803,-0.93574 -0.93574,-0.93574 z"
       id="path4428-9"
       inkscape:connector-curvature="0" />
    <path
       style="fill:#bebebe;fill-opacity:1;stroke:#bebebe;stroke-width:0.10613715;stroke-miterlimit:4;stroke-opacity:1;stroke-dasharray:none"
       d="m -4.009431,19.043637 c -0.523902,0 -0.946932,0.422501 -0.946932,0.946932 0,0.52443 0.42303,0.946931 0.946932,0.946931 0.523901,0 0.946931,-0.422501 0.946931,-0.946931 0,-0.524431 -0.42303,-0.946932 -0.946931,-0.946932 z"
       id="path4428-2-76"
       inkscape:connector-curvature="0" />
    <path
       style="fill:#bebebe;fill-opacity:1;stroke:#bebebe;stroke-width:0.10613713;stroke-miterlimit:4;stroke-opacity:1;stroke-dasharray:none"
       d="m 4.009431,19.043637 c -0.523902,0 -0.946931,0.422501 -0.946931,0.946932 0,0.52443 0.423029,0.946931 0.946931,0.946931 0.523902,0 0.946931,-0.422501 0.946931,-0.946931 0,-0.524431 -0.423029,-0.946932 -0.946931,-0.946932 z"
       id="path4428-8-4-22"
       inkscape:connector-curvature="0" />
    <path
       style="fill:#bebebe;fill-opacity:1;stroke:#bebebe;stroke-width:0.10488272;stroke-miterlimit:4;stroke-opacity:1;stroke-dasharray:none"
       d="m -7.001761,23.0625 c -0.517709,0 -0.935739,0.417508 -0.935739,0.93574 0,0.518232 0.41803,0.93574 0.935739,0.93574 0.51771,0 0.93574,-0.417508 0.93574,-0.93574 0,-0.518232 -0.41803,-0.93574 -0.93574,-0.93574 z"
       id="path4428-25-4"
       inkscape:connector-curvature="0" />
    <path
       style="fill:#bebebe;fill-opacity:1;stroke:#bebebe;stroke-width:0.10613715;stroke-miterlimit:4;stroke-opacity:1;stroke-dasharray:none"
       d="m 0.009431,19.043637 c -0.523901,0 -0.946931,0.422501 -0.946931,0.946932 0,0.52443 0.42303,0.946931 0.946931,0.946931 0.523902,0 0.946931,-0.422501 0.946931,-0.946931 0,-0.524431 -0.423029,-0.946932 -0.946931,-0.946932 z"
       id="path4428-2-9-3"
       inkscape:connector-curvature="0" />
    <path
       style="fill:#bebebe;fill-opacity:1;stroke:#bebebe;stroke-width:0.10613713;stroke-miterlimit:4;stroke-opacity:1;stroke-dasharray:none"
       d="m 9.066019,23.024774 c -0.523902,0 -0.946932,0.422501 -0.946932,0.946932 0,0.52443 0.42303,0.946931 0.946932,0.946931 0.523902,0 0.946931,-0.422501 0.946931,-0.946931 0,-0.524431 -0.423029,-0.946932 -0.946931,-0.946932 z"
       id="path4428-8-4-4-0"
       inkscape:connector-curvature="0" />
    <path
       style="fill:#bebebe;fill-opacity:1;stroke:#bebebe;stroke-width:0.10613715;stroke-miterlimit:4;stroke-opacity:1;stroke-dasharray:none"
       d="m 0.990569,23.043637 c -0.523901,0 -0.946931,0.422501 -0.946931,0.946931 0,0.52443 0.42303,0.946932 0.946931,0.946932 0.523902,0 0.946931,-0.422502 0.946931,-0.946932 0,-0.52443 -0.423029,-0.946931 -0.946931,-0.946931 z"
       id="path4428-2-2-4"
       inkscape:connector-curvature="0" />
    <path
       style="fill:#bebebe;fill-opacity:1;stroke:#bebebe;stroke-width:0.10613713;stroke-miterlimit:4;stroke-opacity:1;stroke-dasharray:none"
       d="m 13.009432,23.043637 c -0.523902,0 -0.946932,0.422501 -0.946932,0.946931 0,0.52443 0.42303,0.946932 0.946932,0.946932 0.523902,0 0.946931,-0.422502 0.946931,-0.946932 0,-0.52443 -0.423029,-0.946931 -0.946931,-0.946931 z"
       id="path4428-8-4-25-90"
       inkscape:connector-curvature="0" />
    <path
       style="fill:#bebebe;fill-opacity:1;stroke:#bebebe;stroke-width:0.10613715;stroke-miterlimit:4;stroke-opacity:1;stroke-dasharray:none"
       d="m -7.990569,19.043637 c -0.523901,0 -0.946931,0.422501 -0.946931,0.946932 0,0.52443 0.42303,0.946931 0.946931,0.946931 0.523902,0 0.946932,-0.422501 0.946932,-0.946931 0,-0.524431 -0.42303,-0.946932 -0.946932,-0.946932 z"
       id="path4428-2-0-9"
       inkscape:connector-curvature="0" />
    <path
       style="fill:#bebebe;fill-opacity:1;stroke:#bebebe;stroke-width:0.10613715;stroke-miterlimit:4;stroke-opacity:1;stroke-dasharray:none"
       d="m -2.990569,23.043637 c -0.523901,0 -0.946931,0.422501 -0.946931,0.946931 0,0.52443 0.42303,0.946932 0.946931,0.946932 0.523902,0 0.946932,-0.422502 0.946932,-0.946932 0,-0.52443 -0.42303,-0.946931 -0.946932,-0.946931 z"
       id="path4428-2-6-9"
       inkscape:connector-curvature="0" />
    <path
       style="fill:#bebebe;fill-opacity:1;stroke:#bebebe;stroke-width:0.10613713;stroke-miterlimit:4;stroke-opacity:1;stroke-dasharray:none"
       d="m 8.009431,19.043637 c -0.523902,0 -0.946931,0.422501 -0.946931,0.946932 0,0.52443 0.423029,0.946931 0.946931,0.946931 0.523902,0 0.946931,-0.422501 0.946931,-0.946931 0,-0.524431 -0.423029,-0.946932 -0.946931,-0.946932 z"
       id="path4428-8-4-3-5"
       inkscape:connector-curvature="0" />
    <path
       style="fill:#bebebe;fill-opacity:1;stroke:#bebebe;stroke-width:0.10613713;stroke-miterlimit:4;stroke-opacity:1;stroke-dasharray:none"
       d="m -10.915119,23.024774 c -0.523902,0 -0.946931,0.422501 -0.946931,0.946932 0,0.52443 0.423029,0.946931 0.946931,0.946931 0.523902,0 0.946931,-0.422501 0.946931,-0.946931 0,-0.524431 -0.423029,-0.946932 -0.946931,-0.946932 z"
       id="path4428-8-4-9-8"
       inkscape:connector-curvature="0" />
    <path
       style="fill:#bebebe;fill-opacity:1;stroke:#bebebe;stroke-width:0.10613713;stroke-miterlimit:4;stroke-opacity:1;stroke-dasharray:none"
       d="m 11.990569,19.0625 c -0.523902,0 -0.946932,0.422501 -0.946932,0.946931 0,0.52443 0.42303,0.946932 0.946932,0.946932 0.523902,0 0.946931,-0.422502 0.946931,-0.946932 0,-0.52443 -0.423029,-0.946931 -0.946931,-0.946931 z"
       id="path4428-8-4-25-9-4"
       inkscape:connector-curvature="0" />
    <path
       style="fill:#bebebe;fill-opacity:1;stroke:#bebebe;stroke-width:0.10613715;stroke-miterlimit:4;stroke-opacity:1;stroke-dasharray:none"
       d="m 5.009431,23.0625 c -0.523901,0 -0.946931,0.422501 -0.946931,0.946931 0,0.52443 0.42303,0.946932 0.946931,0.946932 0.523902,0 0.946931,-0.422502 0.946931,-0.946932 0,-0.52443 -0.423029,-0.946931 -0.946931,-0.946931 z"
       id="path4428-2-2-36-2"
       inkscape:connector-curvature="0" />
    <path
       style="fill:#bebebe;fill-opacity:1;stroke:#bebebe;stroke-width:0.10488272;stroke-miterlimit:4;stroke-opacity:1;stroke-dasharray:none"
       d="m -12.035967,27.043637 c -0.517709,0 -0.935739,0.417508 -0.935739,0.93574 0,0.518232 0.41803,0.93574 0.935739,0.93574 0.51771,0 0.93574,-0.417508 0.93574,-0.93574 0,-0.518232 -0.41803,-0.93574 -0.93574,-0.93574 z"
       id="path4428-9-4"
       inkscape:connector-curvature="0" />
    <path
       style="fill:#bebebe;fill-opacity:1;stroke:#bebebe;stroke-width:0.10613715;stroke-miterlimit:4;stroke-opacity:1;stroke-dasharray:none"
       d="m -3.990569,27.043637 c -0.523902,0 -0.946932,0.422501 -0.946932,0.946932 0,0.52443 0.42303,0.946931 0.946932,0.946931 0.523901,0 0.946931,-0.422501 0.946931,-0.946931 0,-0.524431 -0.42303,-0.946932 -0.946931,-0.946932 z"
       id="path4428-2-76-1"
       inkscape:connector-curvature="0" />
    <path
       style="fill:#bebebe;fill-opacity:1;stroke:#bebebe;stroke-width:0.10613713;stroke-miterlimit:4;stroke-opacity:1;stroke-dasharray:none"
       d="m 4.028293,27.043637 c -0.523902,0 -0.946931,0.422501 -0.946931,0.946932 0,0.52443 0.423029,0.946931 0.946931,0.946931 0.523902,0 0.946931,-0.422501 0.946931,-0.946931 0,-0.524431 -0.423029,-0.946932 -0.946931,-0.946932 z"
       id="path4428-8-4-22-6"
       inkscape:connector-curvature="0" />
    <path
       style="fill:#bebebe;fill-opacity:1;stroke:#bebebe;stroke-width:0.10613715;stroke-miterlimit:4;stroke-opacity:1;stroke-dasharray:none"
       d="m 0.028293,27.043637 c -0.523901,0 -0.946931,0.422501 -0.946931,0.946932 0,0.52443 0.42303,0.946931 0.946931,0.946931 0.523902,0 0.946931,-0.422501 0.946931,-0.946931 0,-0.524431 -0.423029,-0.946932 -0.946931,-0.946932 z"
       id="path4428-2-9-3-5"
       inkscape:connector-curvature="0" />
    <path
       style="fill:#bebebe;fill-opacity:1;stroke:#bebebe;stroke-width:0.10613715;stroke-miterlimit:4;stroke-opacity:1;stroke-dasharray:none"
       d="m -7.971707,27.043637 c -0.523901,0 -0.946931,0.422501 -0.946931,0.946932 0,0.52443 0.42303,0.946931 0.946931,0.946931 0.523902,0 0.946932,-0.422501 0.946932,-0.946931 0,-0.524431 -0.42303,-0.946932 -0.946932,-0.946932 z"
       id="path4428-2-0-9-9"
       inkscape:connector-curvature="0" />
    <path
       style="fill:#bebebe;fill-opacity:1;stroke:#bebebe;stroke-width:0.10613713;stroke-miterlimit:4;stroke-opacity:1;stroke-dasharray:none"
       d="m 8.028293,27.043637 c -0.523902,0 -0.946931,0.422501 -0.946931,0.946932 0,0.52443 0.423029,0.946931 0.946931,0.946931 0.523902,0 0.946931,-0.422501 0.946931,-0.946931 0,-0.524431 -0.423029,-0.946932 -0.946931,-0.946932 z"
       id="path4428-8-4-3-5-5"
       inkscape:connector-curvature="0" />
    <path
       style="fill:#bebebe;fill-opacity:1;stroke:#bebebe;stroke-width:0.10613713;stroke-miterlimit:4;stroke-opacity:1;stroke-dasharray:none"
       d="m 12.009431,27.0625 c -0.523902,0 -0.946932,0.422501 -0.946932,0.946931 0,0.52443 0.42303,0.946932 0.946932,0.946932 0.523902,0 0.946931,-0.422502 0.946931,-0.946932 0,-0.52443 -0.423029,-0.946931 -0.946931,-0.946931 z"
       id="path4428-8-4-25-9-4-0"
       inkscape:connector-curvature="0" />
  </g>
</svg>
